…
tidy_GDP_data  <- pivot_longer(UN_GDP_data, cols=4:51, names_to="year", values_to="amount")%>%
  mutate(amount=amount/10^9)

plot1_GDP_data<-tidy_GDP_data%>%
  pivot_wider(names_from="IndicatorName", values_from="amount")

names(plot1_GDP_data)[4:11] <- c("Final consumption", "Household expenditure", "Government expenditure", "Gross capital formation", "Gross fixed capital formation", "Exports", "Imports", "Final GDP")
  
plot1_GDP_data<-plot1_GDP_data%>%
    pivot_longer(cols=4:20, names_to="IndicatorName", values_to="amount")%>%
    mutate(year=as.numeric(year))

plot1_GDP_data

## # A tibble: 179,520 x 5
##    CountryID Country      year IndicatorName                              amount
##        <dbl> <chr>       <dbl> <chr>                                       <dbl>
##  1         4 Afghanistan  1970 Final consumption                           5.56 
##  2         4 Afghanistan  1970 Household expenditure                       5.07 
##  3         4 Afghanistan  1970 Government expenditure                      0.372
##  4         4 Afghanistan  1970 Gross capital formation                     0.985
##  5         4 Afghanistan  1970 Gross fixed capital formation               0.985
##  6         4 Afghanistan  1970 Exports                                     0.112
##  7         4 Afghanistan  1970 Imports                                     0.184
##  8         4 Afghanistan  1970 Final GDP                                  10.7  
##  9         4 Afghanistan  1970 Agriculture, hunting, forestry, fishing (~  7.99 
## 10         4 Afghanistan  1970 Mining, Manufacturing, Utilities (ISIC C-~  1.01 
## # ... with 179,510 more rows
…
Secondly, recall that GDP is the sum of Household Expenditure (Consumption C), Gross Capital Formation (business investment I), Government Expenditure (G) and Net Exports (exports - imports). Even though there is an indicator Gross Domestic Product (GDP) in your dataframe, I would like you to calculate it given its components discussed above.

plot2_GDP_data<-plot1_GDP_data%>%
  pivot_wider(names_from="IndicatorName", values_from="amount")%>%
  mutate(new_GDP=`Household expenditure`+`Government expenditure`+`Gross capital formation`+`Exports`-`Imports`)%>%
  mutate(new_vs_final=new_GDP/`Final GDP`-1)%>%
  mutate(`Household expenditure`=`Household expenditure`/new_GDP)%>%
  mutate(`Government expenditure`=`Government expenditure`/new_GDP)%>%
  mutate(`Gross capital formation`=`Gross capital formation`/new_GDP)%>%
  mutate(`Net exports`=(`Exports`-`Imports`)/new_GDP)

plot2_GDP_data

## # A tibble: 10,560 x 23
##    Count~1 Country  year Final~2 House~3 Gover~4 Gross~5 Gross~6 Exports Imports
##      <dbl> <chr>   <dbl>   <dbl>   <dbl>   <dbl>   <dbl>   <dbl>   <dbl>   <dbl>
##  1       4 Afghan~  1970    5.56   0.798  0.0587   0.155   0.985   0.112   0.184
##  2       4 Afghan~  1971    5.33   0.787  0.0621   0.171   1.05    0.145   0.269
##  3       4 Afghan~  1972    5.20   0.792  0.0677   0.155   0.919   0.173   0.260
##  4       4 Afghan~  1973    5.75   0.803  0.0649   0.142   0.919   0.218   0.278
##  5       4 Afghan~  1974    6.15   0.788  0.0608   0.167   1.18    0.300   0.407
##  6       4 Afghan~  1975    6.32   0.756  0.0800   0.183   1.37    0.316   0.459
##  7       4 Afghan~  1976    6.37   0.693  0.0765   0.248   2.03    0.417   0.564
##  8       4 Afghan~  1977    6.90   0.724  0.0796   0.226   1.92    0.431   0.679
##  9       4 Afghan~  1978    7.09   0.702  0.0808   0.247   2.22    0.457   0.727
## 10       4 Afghan~  1979    6.92   0.709  0.0815   0.239   2.07    0.489   0.742
## # ... with 10,550 more rows, 13 more variables: `Final GDP` <dbl>,
## #   `Agriculture, hunting, forestry, fishing (ISIC A-B)` <dbl>,
## #   `Mining, Manufacturing, Utilities (ISIC C-E)` <dbl>,
## #   `Manufacturing (ISIC D)` <dbl>, `Construction (ISIC F)` <dbl>,
## #   `Wholesale, retail trade, restaurants and hotels (ISIC G-H)` <dbl>,
## #   `Transport, storage and communication (ISIC I)` <dbl>,
## #   `Other Activities (ISIC J-P)` <dbl>, `Total Value Added` <dbl>, ...
…
